{
	"de" : {
		"The open source, static URL shortener, hosted on GitLab Pages" : 
		"Der statische Open Source URL-Shortener, gehostet auf GitLab Pages",

		"The link you followed here does not exist anymore, or did never exist in the first place." : 
		"Der Link der dich hierher geführt hat, existiert nicht mehr oder er hat gar nicht erst exisitiert.",

		"Check out the the collection of links on the <a href=\"/\">front-page</a> for input." :
		"Schau' die die Linksammlung auf der <a href='/'>Startseite</a> an um mehr zu entdecken.",

		"gitly is a statically generated, open source URL shortener, that is designed to be hosted on GitLab Pages. You can just fork the repository, add your links and get it going" :
		"gitly ist ein statisch generierter Open Source URL-Shortener, designed um auf GitLab Pages gehostet zu werden. Du kannst einfach das Repository forken, deine Links einpflegen und loslegen",

		"Imprint" :
		"Impressum",

		"Privacy Policy" :
		"Datenschutzerklärung"
	}
}