<?xml version="1.0" encoding="utf-8"?>
<!-- Generator: Adobe Illustrator 27.8.1, SVG Export Plug-In . SVG Version: 6.00 Build 0)  -->
<svg version="1.1" id="Ebene_1" xmlns="http://www.w3.org/2000/svg" xmlns:xlink="http://www.w3.org/1999/xlink" x="0px" y="0px"
	 viewBox="0 0 512 512" style="enable-background:new 0 0 512 512;" xml:space="preserve">
<style type="text/css">
	.st0{fill:#8040B5;}
	.st1{fill:#262667;}
	.st2{fill:#48258F;}
	.st3{fill:#342E7C;}
	.st4{fill:url(#SVGID_1_);}
	.st5{fill:#FFFFFF;}
	.st6{fill:url(#SVGID_00000037657341129580741520000013806182828201300890_);}
</style>
<g>
	<path class="st0" d="M151.9,200.9c-7.9,17-15.8,34-23.7,51.1c-1.2,2.6-2.4,5.1-3.6,7.6c-2.1,3.6-4.1,7.3-6.2,10.9
		c-4.5,2.1-9,4.2-13.5,6.3c-0.9,0.4-1.7,0.8-2.6,1.2c-2.3,1-4.6,2.1-6.8,3.1c-0.4,0.2-0.7,0.3-1.1,0.5c-0.5,0.2-0.9,0.4-1.4,0.7
		c-0.5,0.2-1,0.4-1.4,0.6c-1.8,0.8-3.7,1.5-5.5,2.3c-0.4,0.1-0.8,0.2-1.2,0.3c-1.6-1.1-3.3-2.2-4.9-3.3c-0.3-0.3-0.5-0.6-0.8-1
		c-0.3-0.4-0.6-0.7-0.9-1.1c-0.1-0.3-0.2-0.5-0.3-0.8c-0.2-0.1-0.4-0.3-0.6-0.4l0,0c-0.4-0.5-0.8-1.1-1.2-1.6
		c-1.1-0.8-2.2-1.6-3.3-2.4c-0.7-0.2-1.4-0.5-2.1-0.7c-0.3-0.1-0.5-0.1-0.8-0.2c-0.7-0.2-1.4-0.4-2.1-0.6c-0.3-0.1-0.5-0.1-0.8-0.2
		c-0.3-0.1-0.6-0.2-0.8-0.3c-2.1-1.7-4.2-3.4-6.3-5.1c0.1-0.6,0.1-1.1,0.2-1.7c8-16.6,16-33.3,24.1-49.9
		c10.8-22.2,21.6-44.3,32.5-66.4c2-4.2,4-8.4,6.1-12.6c0.3-0.6,1.2-0.8,1.8-1.2c2.8,5.3,5.7,10.5,8.4,15.8
		c6.7,13.3,13.5,26.5,19.7,40.1C153.8,194.4,152.2,197.9,151.9,200.9z"/>
	<path class="st1" d="M468,312.9c-0.7-1.3-1.3-2.6-2-4c-0.4-0.8-0.8-1.6-1.2-2.4c-3.2-6.3-6.4-12.6-9.6-18.9
		c-3.9-6.7-6.7-8.3-11.6-6.6c-3.2,3-6.8,5.8-9.6,9.2c-3.1,3.7-6.6,5.1-11,3c-9.3-4.4-18.4-9-27.7-13.5c-10.2-20-20.4-40-30.6-60.1
		c-6.7-13.5-13.3-27.1-20-40.6c-7-14.2-14-28.5-21.1-42.7c-6.4-12.8-12.7-25.7-19.1-38.5c-14.6-29.2-29.3-58.4-44-87.6
		c-0.2-0.4-0.3-0.8-0.4-1.1c-0.4-0.8-0.8-1.6-1.3-2.3c-0.6-0.9-1.3-1.6-1.9-2.4c-0.6,0.8-1.4,1.5-1.9,2.4c-1.9,3.4-3.6,7-5.4,10.4
		c-5.2,10.2-10.3,20.5-15.5,30.7c-0.2,0.4-0.3,0.9-0.5,1.3c-0.1,0.1-0.1,0.2-0.2,0.3C226.8,63,220,76.4,213.2,89.8
		c-18.3,36.4-36.7,72.8-55,109.3c-0.3,0.6-0.8,1-1.2,1.5c-1.1,2.3-2.3,4.6-3.4,6.9c-1.3,3-2.4,6-3.9,8.9
		c-10.2,20.7-20.5,41.3-30.7,62c-5.2,2.6-10.3,5.2-15.6,7.7c-4.2,2-8.5,3.8-12.8,5.6c-0.6,0.3-1.3,0.6-1.9,0.9
		c-0.3,0.1-0.6,0.3-0.9,0.4c-0.9,0.3-1.8,0.6-2.8,1c-0.5,0-1.1,0-1.6-0.1c-3.2-2.8-6.3-5.6-9.5-8.4c-0.8-0.8-1.6-1.7-2.5-2.5
		c-0.9-0.6-1.8-1.3-2.7-1.9c-0.2-0.1-0.4-0.2-0.6-0.3c-1.2-0.1-2.5-0.3-3.7-0.4c-1.7,1.3-3.3,2.6-5,3.8c-0.2,0.3-0.5,0.5-0.7,0.8
		c-0.4,0.7-0.8,1.4-1.2,2.1c-0.3,0.5-0.5,1-0.8,1.4c-5.6,11.4-11.3,22.8-16.9,34.2c-0.1,0.3-0.1,0.5-0.2,0.8
		c-0.1,0.5-0.1,1.1-0.2,1.6c4,12.5,8.4,24.9,11.8,37.5c1.9,6.9,2.6,14.1,3.2,21.2c1.3,16.1,5.5,21,21.4,23.8
		c15.8,2.8,31.3,6.3,45.1,15c7.9,5,13.6,11.8,18.4,19.7c2.9,4.8,6,9.5,9.5,13.8c1.5,1.9,4,2.9,6.1,4.3c1.4-0.2,2.9-0.2,4.1-0.7
		c6.6-2.8,11.2-7.5,13.9-14.3c0.5,0.6,0.9,1.1,1.2,1.6c7.7,16.1,21.3,25.2,38.1,28.8c18.6,4.1,32.8,13.6,42.4,30
		c0.3,0.5,0.7,1,1.1,1.4c0.9-0.6,2-1,2.5-1.9c6-9,12.5-17.8,22.4-22.7c6.6-3.3,13.7-5.5,20.8-7.7c16.1-4.9,29.2-13.5,36.9-29
		c0.1-0.2,0.3-0.5,0.5-0.7c0.2-0.2,0.4-0.4,0.7-0.7c2.6,6.5,6.8,11.4,13.1,14.5c3.9,2,7.1,1.3,9.6-1.9c3-3.9,6.4-7.6,8.6-11.9
		c9.6-18.7,25.5-28.9,45.3-33.8c9.3-2.3,18.6-4.1,28-6.1c8.6-2.5,12.4-8.7,12.8-17.2c0.9-17.5,5.1-34.3,11.9-50.4
		C473,329.2,474.1,321.1,468,312.9z"/>
	<path class="st2" d="M442.1,273.7c-1.5,0.7-3,1.3-4.5,2c-0.1,0.1-0.3,0.2-0.4,0.3c-2.3,2.6-4.5,5.2-6.8,7.7
		c-0.5,0.5-1.2,0.8-1.8,1.2c-1.8-0.4-3.8-0.6-5.5-1.4c-7.6-3.4-15.2-6.7-22.5-10.6c-2.9-1.6-5.6-4.4-7.3-7.3
		c-3.4-6.1-6.1-12.6-9.1-19c-5.2-10.6-10.3-21.2-15.5-31.8c-2.7-5.4-5.3-10.8-8-16.2c-3.5-5.3-2.5-10,0.5-15.5
		c8.1-15.2,15.5-30.7,23.2-46.1c0.3-0.6,1-1.5,1.6-1.5c0.6,0,1.1,0.9,1.6,1.5c11.1,22.3,22.2,44.5,33.1,66.8
		c9.7,19.7,19.3,39.4,28.9,59.2C452.7,269.5,450.4,272.8,442.1,273.7z"/>
	<path class="st3" d="M256.1,416.4L282.5,192c0.1,0,0.1,0,0.2,0.1c0.3,0.1,0.5,0.4,1.6,1.3c-1.6-3.4-2.5-5.9-3.7-8.2
		c-3.8-7.1-3.2-10.1,1.9-15.7c2.4-2.6,3.4-6.4,5.5-9.3c3-4.2,0.7-8.4-0.2-12.1c-1.6-6.3-4.3-12.6-7.6-18.3
		c-6-10.6-12.7-20.9-19.1-31.3c-0.2-0.3-0.2-0.6-0.4-0.9c-1.5-1-3-1.9-4.5-2.9c-11.4,5.4-18.1,15.5-24.1,25.7
		c-14.3,24.5-27.9,49.4-41.8,74.2c-10.6,19-21.1,38-31.8,56.9c-7.8,13.8-20.7,20.9-35.2,25.8c-1.4,0.5-2.8,0.7-4.2,1.1
		c-5.2,2.6-10.3,5.2-15.6,7.7c-4.2,2-8.5,3.8-12.8,5.6c-0.6,0.3-1.3,0.6-1.9,0.9c-0.3,0.1-0.6,0.3-0.9,0.4c-0.9,0.3-1.8,0.6-2.8,1
		c-0.5,0-1.1,0-1.6-0.1c-3.2-2.8-6.3-5.6-9.5-8.4c-0.8-0.8-1.6-1.7-2.5-2.5c-0.9-0.6-1.8-1.3-2.7-1.9c-0.2-0.1-0.4-0.2-0.6-0.3
		c-1.2-0.1-2.5-0.3-3.7-0.4c-1.7,1.3-3.3,2.6-5,3.8c-0.2,0.3-0.5,0.6-0.7,0.8c-0.4,0.7-0.8,1.4-1.2,2.1c-0.3,0.5-0.5,1-0.8,1.4
		c-5.6,11.4-11.2,22.8-16.9,34.2c-0.1,0.3-0.1,0.5-0.2,0.8c-0.1,0.5-0.1,1.1-0.2,1.6c4,12.5,8.4,24.9,11.8,37.5
		c1.9,6.9,2.6,14.1,3.2,21.2c1.3,16.1,5.5,21,21.4,23.8c15.8,2.8,31.3,6.3,45.1,15c7.9,5,13.6,11.8,18.4,19.8
		c2.9,4.8,6,9.5,9.5,13.8c1.5,1.9,4,2.9,6.1,4.3c0.1-6.2,0.2-12.4,0.5-18.6c0-0.7,1.3-1.9,2-1.9c7.9-0.2,9.4-2.8,5.9-10
		c-1.7-3.4-3.2-6.8-5.4-11.4c1.5,1.2,2.1,1.4,2.3,1.8c4.7,8.2,9.4,16.5,14,24.8c0.3,0.5,0,1.3-0.1,1.9c7.8,16.1,21.3,25.2,38.1,28.8
		c18.6,4.1,32.8,13.6,42.4,30c0.3,0.5,0.7,1,1.1,1.4c0-29.3,0.1-58.6,0-87.9c0-1.1-1.3-2.2-2-3.3L256.1,416.4 M256.1,416.4"/>
	<path class="st2" d="M395.5,279.7c-18.5-5.5-34-14.2-43.5-32.5c-13.7-26.5-28.3-52.5-43-78.4c-10.8-19-21.9-37.8-33.7-56.3
		c-3.6-5.7-9.6-10-14.6-14.9c-1.5-1-3-1.9-4.5-2.9c0.1-0.9,0.4-1.9,0.4-2.8c-0.1-16-0.3-31.9-0.3-47.9c0-2.7-0.6-3.9-3.2-4.7
		c-5.4-1.7-10.5-0.5-14.2,3.9c-1.4,1.7-3.1,3.1-4.6,4.7c5.2-10.2,10.3-20.5,15.5-30.7c1.8-3.5,3.5-7,5.4-10.4
		c0.5-0.9,1.3-1.6,1.9-2.4c0.6,0.8,1.3,1.6,1.9,2.4c0.5,0.7,0.9,1.5,1.3,2.3c0.1,0.4,0.2,0.8,0.4,1.1c14.6,29.2,29.3,58.4,44,87.6
		c6.4,12.8,12.8,25.6,19.1,38.5c7,14.2,14.1,28.5,21.1,42.7c6.7,13.5,13.3,27.1,20,40.6C375.1,239.6,385.3,259.7,395.5,279.7z"/>
	<path class="st0" d="M256.6,92c0,0.9-0.3,1.9-0.4,2.8c-11.4,5.4-18.1,15.5-24.1,25.7c-14.3,24.5-27.9,49.4-41.8,74.2
		c-10.6,19-21.1,38-31.8,56.9c-7.8,13.8-20.7,20.9-35.2,25.8c-1.4,0.5-2.8,0.7-4.2,1.1c10.2-20.6,20.5-41.3,30.7-62
		c1.4-2.9,2.6-5.9,3.9-8.9c1.1-2.3,2.2-4.6,3.4-6.9c0.4-0.5,0.9-1,1.2-1.5c18.4-36.4,36.7-72.8,55-109.3
		c6.8-13.4,13.6-26.8,20.3-40.3c0.1-0.1,0.1-0.2,0.2-0.3c0.2-0.4,0.3-0.9,0.5-1.3c1.5-1.6,3.2-3,4.6-4.7c3.7-4.4,8.7-5.6,14.2-3.9
		c2.6,0.8,3.2,2,3.2,4.7C256.3,60,256.5,76,256.6,92z"/>
	<path class="st2" d="M78,279.4c0.9,0.4,1.8,0.9,2.8,1.4c2.6-7,4.9-14.3,7.8-21.3c6.3-14.9,12.2-30,19.6-44.4
		c2.8-5.5,8.9-9.2,13.5-13.7c0.6-0.5,1.6-0.6,2.5-0.8c-0.1,16.4-0.3,32.7-0.3,49.1c0,3.4,0.5,6.7,0.8,10.1
		c-2.1,3.6-4.1,7.3-6.2,10.9c-4.5,2.1-9,4.2-13.5,6.3c-0.9,0.4-1.7,0.8-2.6,1.2c-2.3,1-4.6,2-6.8,3.1c-0.4,0.2-0.7,0.3-1.1,0.5
		c-0.5,0.2-0.9,0.4-1.4,0.7c-0.5,0.2-1,0.4-1.4,0.6c-1.8,0.8-3.7,1.5-5.5,2.3c-0.4,0.1-0.8,0.2-1.2,0.3c-1.6-1.1-3.3-2.2-4.9-3.3
		c-0.3-0.3-0.5-0.6-0.8-1c-0.3-0.4-0.6-0.7-0.9-1.1C78.2,279.9,78.1,279.6,78,279.4z"/>
	<path class="st2" d="M233.6,49.6c0.1-0.1,0.1-0.2,0.2-0.3C233.8,49.4,233.7,49.5,233.6,49.6z"/>
	<path class="st3" d="M384.2,246.7c1-2.9,2.7-5.8,2.8-8.8c0.3-11.7,0.2-23.4,0.1-35.1c0-2.7,1-3.1,3.2-2.2c8,3.3,12.5,10,16.2,17.2
		c7.6,14.7,14.7,29.6,22.3,44.3c2.7,5.2,6.3,9.6,12.6,10.8c0.3,0.1,0.5,0.5,0.8,0.8c-1.5,0.7-3,1.3-4.5,2c-0.1,0.1-0.3,0.2-0.4,0.3
		c-2.3,2.6-4.5,5.2-6.8,7.7c-0.5,0.5-1.2,0.8-1.8,1.2c-1.8-0.4-3.8-0.6-5.5-1.4c-7.6-3.4-15.2-6.7-22.5-10.6
		c-2.9-1.6-5.6-4.4-7.3-7.3C389.8,259.5,387.1,253,384.2,246.7z"/>
	<path class="st0" d="M387.5,137c-0.2,0.8-0.5,1.7-0.5,2.5c0,17.2,0,34.3-0.1,51.5c0,0.9-1.2,2.5-2.1,2.7c-8.7,2-12,8.8-14.9,16.1
		c-0.6,1.6-0.9,3.4-1.3,5.1c-2.7-5.4-5.3-10.8-8-16.2c-3.5-5.3-2.5-10,0.5-15.5c8.1-15.2,15.5-30.7,23.2-46.1c0.3-0.6,1-1.5,1.6-1.5
		C386.5,135.5,387,136.4,387.5,137z"/>
	<path class="st2" d="M437.2,276c0.1-0.1,0.3-0.2,0.4-0.3C437.4,275.8,437.3,275.9,437.2,276z"/>
	<path class="st3" d="M151.9,201c-7.9,17-15.8,34-23.7,51.1c-1.2,2.6-2.4,5.1-3.6,7.7c-0.3-3.4-0.8-6.7-0.8-10.1
		c0-16.4,0.2-32.7,0.3-49.1c0-20.6,0-41.2,0.1-61.8c0-0.8,0.3-1.7,0.4-2.5c2.8,5.3,5.7,10.5,8.4,15.8c6.7,13.3,13.5,26.5,19.7,40.1
		C153.8,194.4,152.2,197.9,151.9,201z"/>
	<linearGradient id="SVGID_1_" gradientUnits="userSpaceOnUse" x1="175.02" y1="374.3808" x2="337.0702" y2="212.3306">
		<stop  offset="0" style="stop-color:#F73838"/>
		<stop  offset="1" style="stop-color:#FE5F1D"/>
	</linearGradient>
	<path class="st4" d="M350,322.4c0,51.9-42.1,94-94,94s-94-42.1-94-94c0-30.3,18.9-52.7,36.7-74.5c20.6-25.1,57.4-116.5,57.4-116.5
		s36.8,91.5,57.3,116.6C331.2,269.8,350,292.1,350,322.4z"/>
	<g>
		<g>
			<path class="st5" d="M268.3,314.6l-7.4,7.4l-3,3c0.1,3.9-1.3,7.8-4.2,10.7l-19.1,19.1c-5.6,5.6-14.8,5.6-20.5,0
				c-5.6-5.6-5.6-14.8,0-20.5l19.1-19.1c3-3,7.1-4.4,11.1-4.2c0.8-1,1.7-2,2.6-3l7.4-7.4c-9.9-4.3-21.9-2.4-30,5.7l-19.1,19.1
				c-10.5,10.5-10.5,27.7,0,38.3c10.5,10.5,27.7,10.5,38.3,0l19.1-19.1C270.7,336.5,272.6,324.5,268.3,314.6z M306.9,291.4
				c-10.5-10.5-27.7-10.5-38.3,0l-19.1,19.1c-8.1,8.1-10,20.1-5.7,30l7.4-7.4l3-3c-0.1-3.9,1.3-7.8,4.2-10.7l19.1-19.1
				c5.6-5.6,14.8-5.6,20.5,0s5.6,14.8,0,20.5l-19.1,19.1c-3,3-7.1,4.4-11.1,4.2c-0.8,1-1.7,2-2.6,3l-7.4,7.4
				c9.9,4.3,21.9,2.4,30-5.7l19.1-19.1C317.4,319.1,317.4,302,306.9,291.4z"/>
		</g>
	</g>
	
		<linearGradient id="SVGID_00000141454846577415124340000017702431760790517675_" gradientUnits="userSpaceOnUse" x1="256.059" y1="416.4229" x2="256.059" y2="416.4229">
		<stop  offset="0" style="stop-color:#F73838"/>
		<stop  offset="1" style="stop-color:#FE5F1D"/>
	</linearGradient>
	<path style="fill:url(#SVGID_00000141454846577415124340000017702431760790517675_);" d="M256.1,416.4"/>
</g>
</svg>
